# This file uses centimeters as units for non-parametric coordinates.

v 1.000000 1.000000 1.000000
v 1.000000 1.000000 -1.000000
v -1.000000 1.000000 -1.000000
v -1.000000 1.000000 1.000000
v 1.000000 -1.000000 1.000000
v 1.000000 -1.000000 -1.000000
v -1.000000 -1.000000 -1.000000
v -1.000000 -1.000000 1.000000
v 1.540720 1.644400 1.540720
v 1.540720 1.644400 -1.540720
v -1.540720 1.644400 -1.540720
v -1.540720 1.644400 1.540720
v 2.296360 2.544940 0.000000
v 0.000000 2.544940 -2.296360
v -2.296360 2.544940 0.000000
v 0.000000 2.544940 2.296360
v 0.982099 4.052490 0.000000
v 0.000000 4.052490 -0.982099
v -0.982099 4.052490 0.000000
v 0.000000 4.052490 0.982099
v 1.644400 -1.540720 1.540720
v 1.644400 -1.540720 -1.540720
v 1.644400 1.540720 -1.540720
v 1.644400 1.540720 1.540720
v 2.544940 -2.296360 0.000000
v 2.544940 0.000000 -2.296360
v 2.544940 2.296360 0.000000
v 2.544940 0.000000 2.296360
v 4.052490 -0.982099 0.000000
v 4.052490 0.000000 -0.982099
v 4.052490 0.982099 0.000000
v 4.052490 0.000000 0.982099
v 1.540720 -1.540720 -1.644400
v -1.540720 -1.540720 -1.644400
v -1.540720 1.540720 -1.644400
v 1.540720 1.540720 -1.644400
v 0.000000 -2.296360 -2.544940
v -2.296360 0.000000 -2.544940
v 0.000000 2.296360 -2.544940
v 2.296360 0.000000 -2.544940
v 0.000000 -0.982099 -4.052490
v -0.982099 0.000000 -4.052490
v 0.000000 0.982099 -4.052490
v 0.982099 0.000000 -4.052490
v -1.644400 -1.540720 -1.540720
v -1.644400 -1.540720 1.540720
v -1.644400 1.540720 1.540720
v -1.644400 1.540720 -1.540720
v -2.544940 -2.296360 0.000000
v -2.544940 0.000000 2.296360
v -2.544940 2.296360 0.000000
v -2.544940 0.000000 -2.296360
v -4.052490 -0.982099 0.000000
v -4.052490 0.000000 0.982099
v -4.052490 0.982099 0.000000
v -4.052490 0.000000 -0.982099
v -1.540720 -1.540720 1.644400
v 1.540720 -1.540720 1.644400
v 1.540720 1.540720 1.644400
v -1.540720 1.540720 1.644400
v 0.000000 -2.296360 2.544940
v 2.296360 0.000000 2.544940
v 0.000000 2.296360 2.544940
v -2.296360 0.000000 2.544940
v 0.000000 -0.982099 4.052490
v 0.982099 0.000000 4.052490
v 0.000000 0.982099 4.052490
v -0.982099 0.000000 4.052490
v -1.540720 -1.644400 1.540720
v -1.540720 -1.644400 -1.540720
v 1.540720 -1.644400 -1.540720
v 1.540720 -1.644400 1.540720
v -2.296360 -2.544940 0.000000
v 0.000000 -2.544940 -2.296360
v 2.296360 -2.544940 0.000000
v 0.000000 -2.544940 2.296360
v -0.982099 -4.052490 0.000000
v 0.000000 -4.052490 -0.982099
v 0.982099 -4.052490 0.000000
v 0.000000 -4.052490 0.982099
v 0.000000 0.000000 4.452490
v -0.327366 -0.327366 4.052490
v 0.327366 -0.327366 4.052490
v 0.327366 0.327366 4.052490
v -0.327366 0.327366 4.052490
v 0.000000 4.452490 0.000000
v 0.327366 4.052490 0.327366
v 0.327366 4.052490 -0.327366
v -0.327366 4.052490 -0.327366
v -0.327366 4.052490 0.327366
v 4.452490 0.000000 0.000000
v 4.052490 -0.327366 0.327366
v 4.052490 -0.327366 -0.327366
v 4.052490 0.327366 -0.327366
v 4.052490 0.327366 0.327366
v 0.000000 0.000000 -4.452490
v 0.327366 -0.327366 -4.052490
v -0.327366 -0.327366 -4.052490
v -0.327366 0.327366 -4.052490
v 0.327366 0.327366 -4.052490
v -4.452490 0.000000 0.000000
v -4.052490 -0.327366 -0.327366
v -4.052490 -0.327366 0.327366
v -4.052490 0.327366 0.327366
v -4.052490 0.327366 -0.327366
v 0.000000 -4.452490 0.000000
v -0.327366 -4.052490 0.327366
v -0.327366 -4.052490 -0.327366
v 0.327366 -4.052490 -0.327366
v 0.327366 -4.052490 0.327366
vt 0.374793 0.633095
vt 0.338217 0.651383
vt 0.393081 0.596519
vt 0.393081 0.651383
vt 0.393081 0.523099
vt 0.264796 0.651383
vt 0.307010 0.565312
vt 0.374793 0.669671
vt 0.521366 0.651383
vt 0.447945 0.651383
vt 0.479152 0.565312
vt 0.393081 0.706248
vt 0.393081 0.779668
vt 0.307010 0.737455
vt 0.411369 0.633095
vt 0.479152 0.737455
vt 0.411369 0.669671
vt 0.148561 0.111989
vt 0.130273 0.075412
vt 0.185137 0.130277
vt 0.130273 0.130277
vt 0.258558 0.130277
vt 0.130273 0.001992
vt 0.216344 0.044205
vt 0.111985 0.111989
vt 0.130273 0.258561
vt 0.130273 0.185141
vt 0.216344 0.216348
vt 0.075409 0.130277
vt 0.001988 0.130277
vt 0.044202 0.044205
vt 0.148561 0.148565
vt 0.044202 0.216348
vt 0.111985 0.148565
vt 0.374793 0.148565
vt 0.393081 0.185141
vt 0.338217 0.130277
vt 0.393081 0.130277
vt 0.264796 0.130277
vt 0.393081 0.258561
vt 0.307010 0.216348
vt 0.411369 0.148565
vt 0.393081 0.001992
vt 0.393081 0.075412
vt 0.307010 0.044205
vt 0.447945 0.130277
vt 0.521366 0.130277
vt 0.479152 0.216348
vt 0.374793 0.111989
vt 0.479152 0.044205
vt 0.411369 0.111989
vt 0.675928 0.148565
vt 0.712504 0.130277
vt 0.657640 0.185141
vt 0.657640 0.130277
vt 0.657640 0.258561
vt 0.785924 0.130277
vt 0.743711 0.216348
vt 0.675928 0.111989
vt 0.529355 0.130277
vt 0.602775 0.130277
vt 0.571568 0.216348
vt 0.657640 0.075412
vt 0.657640 0.001992
vt 0.743711 0.044206
vt 0.639352 0.148565
vt 0.571568 0.044206
vt 0.639352 0.111989
vt 0.111985 0.633095
vt 0.075409 0.651383
vt 0.130273 0.596519
vt 0.130273 0.651383
vt 0.130273 0.523099
vt 0.001988 0.651383
vt 0.044202 0.565312
vt 0.111985 0.669671
vt 0.258558 0.651383
vt 0.185137 0.651383
vt 0.216344 0.565312
vt 0.130273 0.706248
vt 0.130273 0.779668
vt 0.044202 0.737455
vt 0.148561 0.633095
vt 0.216344 0.737455
vt 0.148561 0.669671
vt 0.639352 0.669672
vt 0.657640 0.706248
vt 0.602775 0.651383
vt 0.657640 0.651383
vt 0.529355 0.651383
vt 0.657640 0.779668
vt 0.571568 0.737455
vt 0.675928 0.669672
vt 0.657640 0.523099
vt 0.657640 0.596519
vt 0.571568 0.565312
vt 0.712504 0.651383
vt 0.785924 0.651383
vt 0.743711 0.737455
vt 0.639352 0.633095
vt 0.743711 0.565312
vt 0.675928 0.633095
vt 0.691223 0.304759
vt 0.733437 0.390830
vt 0.691223 0.476901
vt 0.661016 0.446694
vt 0.661016 0.334966
vt 0.605152 0.519115
vt 0.519081 0.476901
vt 0.549288 0.446694
vt 0.519081 0.304759
vt 0.605152 0.262545
vt 0.549288 0.334966
vt 0.476867 0.390830
vt 0.725342 0.783652
vt 0.775650 0.869723
vt 0.725342 0.955795
vt 0.689343 0.925588
vt 0.689343 0.813859
vt 0.256388 0.304759
vt 0.342459 0.262545
vt 0.428530 0.304759
vt 0.398323 0.334966
vt 0.286595 0.334966
vt 0.470744 0.390830
vt 0.428530 0.476901
vt 0.398323 0.446694
vt 0.342459 0.519115
vt 0.256388 0.476901
vt 0.286595 0.446694
vt 0.647220 0.955795
vt 0.596912 0.869723
vt 0.647220 0.783652
vt 0.683219 0.813859
vt 0.683219 0.925588
vt 0.540480 0.783652
vt 0.590788 0.869723
vt 0.540480 0.955795
vt 0.504481 0.925588
vt 0.504481 0.813859
vt 0.355619 0.783652
vt 0.405927 0.869723
vt 0.355619 0.955795
vt 0.319620 0.925588
vt 0.319620 0.813859
vt 0.462359 0.955795
vt 0.412050 0.869723
vt 0.462359 0.783652
vt 0.498358 0.813859
vt 0.498358 0.925588
vt 0.844222 0.695241
vt 0.793914 0.609170
vt 0.844222 0.523099
vt 0.880221 0.553306
vt 0.880221 0.665034
vt 0.844222 0.695241
vt 0.793914 0.737455
vt 0.880221 0.665034
vt 0.277497 0.955795
vt 0.227189 0.869723
vt 0.277497 0.783652
vt 0.313496 0.813859
vt 0.313496 0.925588
vt 0.185066 0.955795
vt 0.134758 0.869723
vt 0.185066 0.783652
vt 0.221065 0.813859
vt 0.221065 0.925588
vt 0.953917 0.476901
vt 0.867845 0.519115
vt 0.781774 0.476901
vt 0.811981 0.446695
vt 0.923710 0.446695
vt 0.739561 0.390830
vt 0.781774 0.304759
vt 0.811981 0.334966
vt 0.953917 0.304759
vt 0.996130 0.390830
vt 0.923710 0.334966
vt 0.867845 0.262545
vt 0.937595 0.737455
vt 0.887287 0.651383
vt 0.937595 0.565312
vt 0.973594 0.595519
vt 0.973594 0.707248
vt 0.887287 0.523099
vt 0.937595 0.565312
vt 0.973594 0.595519
vt 0.953917 0.783652
vt 0.996130 0.869723
vt 0.953917 0.955795
vt 0.923710 0.925588
vt 0.923710 0.813859
vt 0.867845 0.998008
vt 0.781774 0.955795
vt 0.811981 0.925588
f 10/103 13/104 9/105 1/106 2/107
f 14/26 18/27 17/20 13/22 10/28
f 9/105 16/108 12/109 4/110 1/106
f 12/109 15/114 11/111 3/113 4/110
f 11/111 14/112 10/103 2/107 3/113
f 13/22 17/20 20/19 16/23 9/24
f 16/23 20/19 19/29 15/30 12/31
f 15/30 19/29 18/27 14/26 11/33
f 22/115 25/116 21/117 5/118 6/119
f 26/43 30/44 29/37 25/39 22/45
f 21/120 28/121 24/122 1/123 5/124
f 24/122 27/125 23/126 2/127 1/123
f 23/126 26/128 22/129 6/130 2/127
f 25/39 29/37 32/36 28/40 21/41
f 28/40 32/36 31/46 27/47 24/48
f 27/47 31/46 30/44 26/43 23/50
f 34/131 37/132 33/133 6/134 7/135
f 38/60 42/61 41/54 37/56 34/62
f 33/136 40/137 36/138 2/139 6/140
f 36/141 39/142 35/143 3/144 2/145
f 35/146 38/147 34/148 7/149 3/150
f 37/56 41/54 44/53 40/57 33/58
f 40/57 44/53 43/63 39/64 36/65
f 39/64 43/63 42/61 38/60 35/67
f 46/151 49/152 45/153 7/154 8/155
f 50/77 54/78 53/71 49/73 46/79
f 45/159 52/160 48/161 3/162 7/163
f 48/164 51/165 47/166 4/167 3/168
f 47/156 50/157 46/151 8/155 4/158
f 49/73 53/71 56/70 52/74 45/75
f 52/74 56/70 55/80 51/81 48/82
f 51/81 55/80 54/78 50/77 47/84
f 58/169 61/170 57/171 8/172 5/173
f 62/9 66/10 65/3 61/5 58/11
f 57/171 64/174 60/175 4/176 8/172
f 60/175 63/180 59/177 1/179 4/176
f 59/177 62/178 58/169 5/173 1/179
f 61/5 65/3 68/2 64/6 57/7
f 64/6 68/2 67/12 63/13 60/14
f 63/13 67/12 66/10 62/9 59/16
f 70/181 73/182 69/183 8/184 7/185
f 74/94 78/95 77/88 73/90 70/96
f 69/183 76/186 72/187 5/188 8/184
f 72/189 75/190 71/191 6/192 5/193
f 71/191 74/194 70/195 7/196 6/192
f 73/90 77/88 80/87 76/91 69/92
f 76/91 80/87 79/97 75/98 72/99
f 75/98 79/97 78/95 74/94 71/101
f 82/1 65/3 81/4
f 82/1 81/4 68/2
f 82/1 68/2 65/3
f 83/15 66/10 81/4
f 83/15 81/4 65/3
f 83/15 65/3 66/10
f 84/17 67/12 81/4
f 84/17 81/4 66/10
f 84/17 66/10 67/12
f 85/8 68/2 81/4
f 85/8 81/4 67/12
f 85/8 67/12 68/2
f 87/18 17/20 86/21
f 87/18 86/21 20/19
f 87/18 20/19 17/20
f 88/32 18/27 86/21
f 88/32 86/21 17/20
f 88/32 17/20 18/27
f 89/34 19/29 86/21
f 89/34 86/21 18/27
f 89/34 18/27 19/29
f 90/25 20/19 86/21
f 90/25 86/21 19/29
f 90/25 19/29 20/19
f 92/35 29/37 91/38
f 92/35 91/38 32/36
f 92/35 32/36 29/37
f 93/49 30/44 91/38
f 93/49 91/38 29/37
f 93/49 29/37 30/44
f 94/51 31/46 91/38
f 94/51 91/38 30/44
f 94/51 30/44 31/46
f 95/42 32/36 91/38
f 95/42 91/38 31/46
f 95/42 31/46 32/36
f 97/52 41/54 96/55
f 97/52 96/55 44/53
f 97/52 44/53 41/54
f 98/66 42/61 96/55
f 98/66 96/55 41/54
f 98/66 41/54 42/61
f 99/68 43/63 96/55
f 99/68 96/55 42/61
f 99/68 42/61 43/63
f 100/59 44/53 96/55
f 100/59 96/55 43/63
f 100/59 43/63 44/53
f 102/69 53/71 101/72
f 102/69 101/72 56/70
f 102/69 56/70 53/71
f 103/83 54/78 101/72
f 103/83 101/72 53/71
f 103/83 53/71 54/78
f 104/85 55/80 101/72
f 104/85 101/72 54/78
f 104/85 54/78 55/80
f 105/76 56/70 101/72
f 105/76 101/72 55/80
f 105/76 55/80 56/70
f 107/86 77/88 106/89
f 107/86 106/89 80/87
f 107/86 80/87 77/88
f 108/100 78/95 106/89
f 108/100 106/89 77/88
f 108/100 77/88 78/95
f 109/102 79/97 106/89
f 109/102 106/89 78/95
f 109/102 78/95 79/97
f 110/93 80/87 106/89
f 110/93 106/89 79/97
f 110/93 79/97 80/87
