# This file uses centimeters as units for non-parametric coordinates.

v 0.333333 1.078690 1.206010
v 0.666667 0.539343 1.412020
v 1.206010 0.333333 1.078690
v 1.412020 0.666667 0.539343
v 1.078690 1.206010 0.333333
v 0.539343 1.412020 0.666667
v -0.333333 1.078690 1.206010
v -0.666667 0.539343 1.412020
v -0.333333 0.000000 1.618030
v 0.333333 0.000000 1.618030
v -0.539343 1.412020 0.666667
v -1.078690 1.206010 0.333333
v -1.412020 0.666667 0.539343
v -1.206010 0.333333 1.078690
v 0.000000 1.618030 0.333333
v 0.000000 1.618030 -0.333333
v -0.539343 1.412020 -0.666667
v -1.078690 1.206010 -0.333333
v 1.078690 1.206010 -0.333333
v 0.539343 1.412020 -0.666667
v 0.539343 -1.412020 0.666667
v 1.078690 -1.206010 0.333333
v 1.412020 -0.666667 0.539343
v 1.206010 -0.333333 1.078690
v 0.666667 -0.539343 1.412020
v 0.333333 -1.078690 1.206010
v -0.666667 -0.539343 1.412020
v -0.333333 -1.078690 1.206010
v -1.206010 -0.333333 1.078690
v -1.412020 -0.666667 0.539343
v -1.078690 -1.206010 0.333333
v -0.539343 -1.412020 0.666667
v -1.078690 -1.206010 -0.333333
v -0.539343 -1.412020 -0.666667
v 0.000000 -1.618030 -0.333333
v 0.000000 -1.618030 0.333333
v 0.539343 -1.412020 -0.666667
v 1.078690 -1.206010 -0.333333
v 1.412020 0.666667 -0.539343
v 1.206010 0.333333 -1.078690
v 0.666667 0.539343 -1.412020
v 0.333333 1.078690 -1.206010
v 0.333333 0.000000 -1.618030
v -0.333333 0.000000 -1.618030
v -0.666667 0.539343 -1.412020
v -0.333333 1.078690 -1.206010
v -1.206010 0.333333 -1.078690
v -1.412020 0.666667 -0.539343
v 1.618030 -0.333333 0.000000
v 1.618030 0.333333 0.000000
v -1.618030 0.333333 0.000000
v -1.618030 -0.333333 0.000000
v 1.412020 -0.666667 -0.539343
v 1.206010 -0.333333 -1.078690
v 0.333333 -1.078690 -1.206010
v 0.666667 -0.539343 -1.412020
v -0.333333 -1.078690 -1.206010
v -0.666667 -0.539343 -1.412020
v -1.412020 -0.666667 -0.539343
v -1.206010 -0.333333 -1.078690
v 0.930412 0.930412 0.930412
v 0.581784 1.121130 0.915118
v 0.624226 0.830237 1.163570
v 0.915118 0.581784 1.121130
v 1.163570 0.624226 0.830237
v 1.121130 0.915118 0.581784
v 0.830237 1.163570 0.624226
v -0.930412 0.930412 0.930412
v -0.581784 1.121130 0.915118
v -0.830237 1.163570 0.624226
v -1.121130 0.915118 0.581784
v -1.163570 0.624226 0.830237
v -0.915118 0.581784 1.121130
v -0.624226 0.830237 1.163570
v -0.575026 1.505440 0.000000
v -0.359562 1.480690 0.333333
v -0.179781 1.549360 0.000000
v -0.359562 1.480690 -0.333333
v -0.719126 1.343350 -0.333333
v -0.898908 1.274680 0.000000
v -0.719126 1.343350 0.333333
v 0.575026 1.505440 0.000000
v 0.359562 1.480690 0.333333
v 0.719126 1.343350 0.333333
v 0.898908 1.274680 0.000000
v 0.719126 1.343350 -0.333333
v 0.359562 1.480690 -0.333333
v 0.179781 1.549360 0.000000
v 0.930412 -0.930412 0.930412
v 0.581784 -1.121130 0.915118
v 0.830237 -1.163570 0.624226
v 1.121130 -0.915118 0.581784
v 1.163570 -0.624226 0.830237
v 0.915118 -0.581784 1.121130
v 0.624226 -0.830237 1.163570
v 0.000000 -0.575026 1.505440
v 0.000000 -0.898908 1.274680
v 0.333333 -0.719126 1.343350
v 0.333333 -0.359562 1.480690
v 0.000000 -0.179781 1.549360
v -0.333333 -0.359562 1.480690
v -0.333333 -0.719126 1.343350
v -0.930412 -0.930412 0.930412
v -0.581784 -1.121130 0.915118
v -0.624226 -0.830237 1.163570
v -0.915118 -0.581784 1.121130
v -1.163570 -0.624226 0.830237
v -1.121130 -0.915118 0.581784
v -0.830237 -1.163570 0.624226
v -0.575026 -1.505440 0.000000
v -0.359562 -1.480690 0.333333
v -0.719126 -1.343350 0.333333
v -0.898908 -1.274680 0.000000
v -0.719126 -1.343350 -0.333333
v -0.359562 -1.480690 -0.333333
v -0.179781 -1.549360 0.000000
v 0.575026 -1.505440 0.000000
v 0.359562 -1.480690 0.333333
v 0.179781 -1.549360 0.000000
v 0.359562 -1.480690 -0.333333
v 0.719126 -1.343350 -0.333333
v 0.898908 -1.274680 0.000000
v 0.719126 -1.343350 0.333333
v 0.930412 0.930412 -0.930412
v 0.581784 1.121130 -0.915118
v 0.830237 1.163570 -0.624226
v 1.121130 0.915118 -0.581784
v 1.163570 0.624226 -0.830237
v 0.915118 0.581784 -1.121130
v 0.624226 0.830237 -1.163570
v 0.000000 0.575026 -1.505440
v 0.000000 0.898908 -1.274680
v 0.333333 0.719126 -1.343350
v 0.333333 0.359562 -1.480690
v 0.000000 0.179781 -1.549360
v -0.333333 0.359562 -1.480690
v -0.333333 0.719126 -1.343350
v -0.930412 0.930412 -0.930412
v -0.581784 1.121130 -0.915118
v -0.624226 0.830237 -1.163570
v -0.915118 0.581784 -1.121130
v -1.163570 0.624226 -0.830237
v -1.121130 0.915118 -0.581784
v -0.830237 1.163570 -0.624226
v 1.505440 0.000000 0.575026
v 1.274680 0.000000 0.898908
v 1.343350 -0.333333 0.719126
v 1.480690 -0.333333 0.359562
v 1.549360 0.000000 0.179781
v 1.480690 0.333333 0.359562
v 1.343350 0.333333 0.719126
v -1.505440 0.000000 0.575026
v -1.274680 0.000000 0.898908
v -1.343350 0.333333 0.719126
v -1.480690 0.333333 0.359562
v -1.549360 0.000000 0.179781
v -1.480690 -0.333333 0.359562
v -1.343350 -0.333333 0.719126
v 1.505440 0.000000 -0.575026
v 1.274680 0.000000 -0.898908
v 1.343350 0.333333 -0.719126
v 1.480690 0.333333 -0.359562
v 1.549360 0.000000 -0.179781
v 1.480690 -0.333333 -0.359562
v 1.343350 -0.333333 -0.719126
v 0.930412 -0.930412 -0.930412
v 0.581784 -1.121130 -0.915118
v 0.624226 -0.830237 -1.163570
v 0.915118 -0.581784 -1.121130
v 1.163570 -0.624226 -0.830237
v 1.121130 -0.915118 -0.581784
v 0.830237 -1.163570 -0.624226
v -0.930412 -0.930412 -0.930412
v -0.581784 -1.121130 -0.915118
v -0.830237 -1.163570 -0.624226
v -1.121130 -0.915118 -0.581784
v -1.163570 -0.624226 -0.830237
v -0.915118 -0.581784 -1.121130
v -0.624226 -0.830237 -1.163570
v -1.505440 0.000000 -0.575026
v -1.274680 0.000000 -0.898908
v -1.343350 -0.333333 -0.719126
v -1.480690 -0.333333 -0.359562
v -1.549360 0.000000 -0.179781
v -1.480690 0.333333 -0.359562
v -1.343350 0.333333 -0.719126
v 0.000000 0.575026 1.505440
v 0.000000 0.898908 1.274680
v -0.333333 0.719126 1.343350
v -0.333333 0.359562 1.480690
v 0.000000 0.179781 1.549360
v 0.333333 0.359562 1.480690
v 0.333333 0.719126 1.343350
v 0.000000 -0.575026 -1.505440
v -0.333333 -0.359562 -1.480690
v 0.000000 -0.179781 -1.549360
v 0.333333 -0.359562 -1.480690
v 0.333333 -0.719126 -1.343350
v 0.000000 -0.898908 -1.274680
v -0.333333 -0.719126 -1.343350
v 1.404960 0.868310 0.000000
v 1.449980 0.605246 0.179781
v 1.449980 0.605246 -0.179781
v 1.270200 0.896138 -0.290892
v 1.159090 1.075920 0.000000
v 1.270200 0.896138 0.290892
v -0.868310 0.000000 -1.404960
v -0.605246 -0.179781 -1.449980
v -0.896138 -0.290892 -1.270200
v -1.075920 0.000000 -1.159090
v -0.896138 0.290892 -1.270200
v -0.605246 0.179781 -1.449980
v 0.000000 -1.404960 -0.868310
v -0.290892 -1.270200 -0.896138
v 0.000000 -1.159090 -1.075920
v 0.290892 -1.270200 -0.896138
v 0.179781 -1.449980 -0.605246
v -0.179781 -1.449980 -0.605246
v -1.404960 0.868310 0.000000
v -1.270200 0.896138 0.290892
v -1.159090 1.075920 0.000000
v -1.270200 0.896138 -0.290892
v -1.449980 0.605246 -0.179781
v -1.449980 0.605246 0.179781
v 1.404960 -0.868310 0.000000
v 1.270200 -0.896138 0.290892
v 1.159090 -1.075920 0.000000
v 1.270200 -0.896138 -0.290892
v 1.449980 -0.605246 -0.179781
v 1.449980 -0.605246 0.179781
v -1.404960 -0.868310 0.000000
v -1.449980 -0.605246 0.179781
v -1.449980 -0.605246 -0.179781
v -1.270200 -0.896138 -0.290892
v -1.159090 -1.075920 0.000000
v -1.270200 -0.896138 0.290892
v -0.868310 0.000000 1.404960
v -0.605246 0.179781 1.449980
v -0.896138 0.290892 1.270200
v -1.075920 0.000000 1.159090
v -0.896138 -0.290892 1.270200
v -0.605246 -0.179781 1.449980
v 0.000000 1.404960 0.868310
v 0.179781 1.449980 0.605246
v -0.179781 1.449980 0.605246
v -0.290892 1.270200 0.896138
v 0.000000 1.159090 1.075920
v 0.290892 1.270200 0.896138
v 0.868310 0.000000 1.404960
v 0.896138 0.290892 1.270200
v 0.605246 0.179781 1.449980
v 0.605246 -0.179781 1.449980
v 0.896138 -0.290892 1.270200
v 1.075920 0.000000 1.159090
v 0.868310 0.000000 -1.404960
v 1.075920 0.000000 -1.159090
v 0.896138 -0.290892 -1.270200
v 0.605246 -0.179781 -1.449980
v 0.605246 0.179781 -1.449980
v 0.896138 0.290892 -1.270200
v 0.000000 -1.404960 0.868310
v 0.290892 -1.270200 0.896138
v 0.000000 -1.159090 1.075920
v -0.290892 -1.270200 0.896138
v -0.179781 -1.449980 0.605246
v 0.179781 -1.449980 0.605246
v 0.000000 1.404960 -0.868310
v -0.179781 1.449980 -0.605246
v 0.179781 1.449980 -0.605246
v 0.290892 1.270200 -0.896138
v 0.000000 1.159090 -1.075920
v -0.290892 1.270200 -0.896138
vt 0.039546 0.108581
vt 0.001880 0.140752
vt 0.037565 0.063439
vt 0.071717 0.114077
vt 0.042003 0.146247
vt 0.077212 0.076410
vt 0.045607 0.183913
vt 0.114878 0.044239
vt 0.018724 0.183913
vt 0.079670 0.160634
vt 0.114878 0.090797
vt 0.001880 0.227075
vt 0.114878 0.183913
vt 0.158040 0.109456
vt 0.042003 0.221579
vt 0.079670 0.207192
vt 0.114878 0.137355
vt 0.158040 0.067518
vt 0.071717 0.253750
vt 0.201201 0.044239
vt 0.039546 0.259246
vt 0.114878 0.230471
vt 0.158040 0.160634
vt 0.201201 0.090797
vt 0.158040 0.033829
vt 0.037565 0.304388
vt 0.158040 0.258371
vt 0.201201 0.183913
vt 0.244363 0.114077
vt 0.158040 0.001992
vt 0.077212 0.291417
vt 0.114878 0.277029
vt 0.158040 0.207192
vt 0.201201 0.137355
vt 0.238868 0.076410
vt 0.114878 0.323587
vt 0.278514 0.063439
vt 0.158040 0.300308
vt 0.201201 0.230471
vt 0.236410 0.160634
vt 0.276534 0.108581
vt 0.201201 0.323587
vt 0.244363 0.253750
vt 0.270473 0.183913
vt 0.314200 0.140752
vt 0.158040 0.333998
vt 0.201201 0.277029
vt 0.236410 0.207192
vt 0.274076 0.146247
vt 0.158040 0.365835
vt 0.238868 0.291417
vt 0.274076 0.221579
vt 0.297355 0.183913
vt 0.278514 0.304388
vt 0.314200 0.227075
vt 0.276534 0.259246
vt 0.557203 0.291416
vt 0.596849 0.304388
vt 0.519536 0.323587
vt 0.562698 0.253750
vt 0.594869 0.259246
vt 0.519536 0.277029
vt 0.632535 0.227075
vt 0.476375 0.258371
vt 0.592411 0.221579
vt 0.519536 0.230471
vt 0.476375 0.300308
vt 0.588808 0.183913
vt 0.519536 0.183913
vt 0.433213 0.323587
vt 0.615690 0.183913
vt 0.554745 0.207192
vt 0.476375 0.207192
vt 0.433213 0.277029
vt 0.632535 0.140752
vt 0.433213 0.183913
vt 0.390051 0.253750
vt 0.592411 0.146247
vt 0.554745 0.160634
vt 0.476375 0.160634
vt 0.433213 0.230471
vt 0.395547 0.291416
vt 0.562698 0.114076
vt 0.476375 0.109456
vt 0.355900 0.304388
vt 0.594869 0.108581
vt 0.519536 0.137355
vt 0.433213 0.137355
vt 0.398005 0.207192
vt 0.357881 0.259246
vt 0.596849 0.063439
vt 0.390051 0.114076
vt 0.363942 0.183913
vt 0.320215 0.227075
vt 0.557203 0.076410
vt 0.519536 0.090797
vt 0.433213 0.090797
vt 0.398005 0.160634
vt 0.360338 0.221579
vt 0.519536 0.044239
vt 0.433213 0.044239
vt 0.476375 0.067518
vt 0.395547 0.076410
vt 0.360338 0.146247
vt 0.337059 0.183913
vt 0.355900 0.063439
vt 0.320215 0.140752
vt 0.476375 0.033829
vt 0.357881 0.108581
vt 0.476375 0.001992
vt 0.866384 0.616778
vt 0.906030 0.629749
vt 0.828718 0.648949
vt 0.871879 0.579112
vt 0.904050 0.584607
vt 0.828718 0.602391
vt 0.941716 0.552437
vt 0.785556 0.583732
vt 0.901592 0.546941
vt 0.828718 0.555833
vt 0.785556 0.625670
vt 0.897989 0.509275
vt 0.828718 0.509275
vt 0.742394 0.648949
vt 0.863926 0.532554
vt 0.785556 0.532554
vt 0.742394 0.602391
vt 0.742394 0.509275
vt 0.699232 0.579112
vt 0.863926 0.485996
vt 0.785556 0.485996
vt 0.742394 0.555833
vt 0.704728 0.616778
vt 0.871879 0.439438
vt 0.785556 0.434818
vt 0.665082 0.629749
vt 0.901592 0.471609
vt 0.828718 0.462717
vt 0.742394 0.462717
vt 0.707186 0.532554
vt 0.667062 0.584607
vt 0.941716 0.466113
vt 0.699232 0.439438
vt 0.673123 0.509275
vt 0.629396 0.552437
vt 0.904050 0.433943
vt 0.828718 0.416159
vt 0.742394 0.416159
vt 0.707186 0.485996
vt 0.669519 0.546941
vt 0.906030 0.388801
vt 0.828718 0.369601
vt 0.742394 0.369601
vt 0.866384 0.401772
vt 0.785556 0.392880
vt 0.704728 0.401772
vt 0.669519 0.471609
vt 0.646240 0.509275
vt 0.665082 0.388801
vt 0.629396 0.466113
vt 0.785556 0.359190
vt 0.667062 0.433943
vt 0.785556 0.327354
vt 0.585940 0.433943
vt 0.587921 0.388801
vt 0.623606 0.466113
vt 0.553770 0.439438
vt 0.548274 0.401772
vt 0.583483 0.471609
vt 0.510608 0.369601
vt 0.579879 0.509275
vt 0.510608 0.416159
vt 0.545816 0.485996
vt 0.467446 0.434818
vt 0.510608 0.509275
vt 0.467446 0.392880
vt 0.510608 0.462717
vt 0.545816 0.532554
vt 0.424285 0.369601
vt 0.553770 0.579112
vt 0.424285 0.416159
vt 0.467446 0.485996
vt 0.510608 0.555833
vt 0.583483 0.546941
vt 0.381123 0.439438
vt 0.424285 0.509275
vt 0.467446 0.583732
vt 0.623606 0.552437
vt 0.386618 0.401772
vt 0.424285 0.462717
vt 0.467446 0.532554
vt 0.510608 0.602391
vt 0.585940 0.584607
vt 0.346972 0.388801
vt 0.510608 0.648949
vt 0.587921 0.629749
vt 0.348952 0.433943
vt 0.389076 0.485996
vt 0.424285 0.555833
vt 0.467446 0.625670
vt 0.548274 0.616778
vt 0.311286 0.466113
vt 0.355013 0.509275
vt 0.381123 0.579112
vt 0.424285 0.648949
vt 0.351410 0.471609
vt 0.389076 0.532554
vt 0.424285 0.602391
vt 0.467446 0.659360
vt 0.467446 0.691196
vt 0.328131 0.509275
vt 0.351410 0.546941
vt 0.386618 0.616778
vt 0.311286 0.552437
vt 0.346972 0.629749
vt 0.348952 0.584607
vt 0.241155 0.644255
vt 0.286297 0.646235
vt 0.208984 0.681921
vt 0.235659 0.612085
vt 0.273326 0.606589
vt 0.203489 0.641798
vt 0.305497 0.568923
vt 0.165823 0.638194
vt 0.258939 0.568923
vt 0.189102 0.604131
vt 0.240280 0.525761
vt 0.165823 0.568923
vt 0.282218 0.525761
vt 0.212381 0.568923
vt 0.142544 0.604131
vt 0.305497 0.482599
vt 0.095986 0.612085
vt 0.258939 0.482599
vt 0.189102 0.525761
vt 0.119265 0.568923
vt 0.128156 0.641798
vt 0.235659 0.439438
vt 0.165823 0.482599
vt 0.091365 0.525761
vt 0.122661 0.681921
vt 0.273326 0.444933
vt 0.212381 0.482599
vt 0.142544 0.525761
vt 0.072707 0.568923
vt 0.090490 0.644255
vt 0.286297 0.405287
vt 0.026148 0.568923
vt 0.045348 0.646235
vt 0.241155 0.407267
vt 0.189102 0.447391
vt 0.119265 0.482599
vt 0.049428 0.525761
vt 0.058319 0.606589
vt 0.208984 0.369601
vt 0.165823 0.413328
vt 0.095986 0.439438
vt 0.026148 0.482599
vt 0.203489 0.409725
vt 0.142544 0.447391
vt 0.072707 0.482599
vt 0.165823 0.386446
vt 0.128156 0.409725
vt 0.058319 0.444933
vt 0.122661 0.369601
vt 0.045348 0.405287
vt 0.090490 0.407267
vt 0.066222 0.723354
vt 0.021080 0.721373
vt 0.098392 0.685688
vt 0.071717 0.755524
vt 0.034051 0.761020
vt 0.103888 0.725811
vt 0.001880 0.798686
vt 0.141554 0.729415
vt 0.048438 0.798686
vt 0.118275 0.763478
vt 0.067097 0.841848
vt 0.141554 0.798686
vt 0.025159 0.841848
vt 0.094996 0.798686
vt 0.164833 0.763478
vt 0.001880 0.885009
vt 0.211391 0.755524
vt 0.048438 0.885009
vt 0.118275 0.841848
vt 0.188112 0.798686
vt 0.179220 0.725811
vt 0.071717 0.928171
vt 0.141554 0.885009
vt 0.216011 0.841848
vt 0.184716 0.685688
vt 0.034051 0.922676
vt 0.094996 0.885009
vt 0.164833 0.841848
vt 0.234670 0.798686
vt 0.216886 0.723354
vt 0.021080 0.962322
vt 0.281228 0.798686
vt 0.262028 0.721373
vt 0.066222 0.960342
vt 0.118275 0.920218
vt 0.188112 0.885009
vt 0.257949 0.841848
vt 0.249057 0.761020
vt 0.098392 0.998008
vt 0.141554 0.954281
vt 0.211391 0.928171
vt 0.281228 0.885009
vt 0.103888 0.957884
vt 0.164833 0.920218
vt 0.234670 0.885009
vt 0.179220 0.957884
vt 0.249057 0.922676
vt 0.184716 0.998008
vt 0.262028 0.962322
vt 0.216886 0.960342
f 62/1 1/2 61/3
f 62/1 61/3 6/4
f 62/1 6/4 1/2
f 63/57 2/60 61/58
f 63/57 61/58 1/59
f 63/57 1/59 2/60
f 64/61 3/63 61/58
f 64/61 61/58 2/60
f 64/61 2/60 3/63
f 65/111 4/114 61/112
f 65/111 61/112 3/113
f 65/111 3/113 4/114
f 66/115 5/117 61/112
f 66/115 61/112 4/114
f 66/115 4/114 5/117
f 67/6 6/4 61/3
f 67/6 61/3 5/8
f 67/6 5/8 6/4
f 69/21 11/19 68/26
f 69/21 68/26 7/12
f 69/21 7/12 11/19
f 70/31 12/36 68/26
f 70/31 68/26 11/19
f 70/31 11/19 12/36
f 71/164 13/167 68/165
f 71/164 68/165 12/166
f 71/164 12/166 13/167
f 72/168 14/170 68/165
f 72/168 68/165 13/167
f 72/168 13/167 14/170
f 73/90 8/77 68/85
f 73/90 68/85 14/94
f 73/90 14/94 8/77
f 74/82 7/70 68/85
f 74/82 68/85 8/77
f 74/82 8/77 7/70
f 76/22 15/13 75/27
f 76/22 75/27 11/19
f 76/22 11/19 15/13
f 77/33 16/28 75/27
f 77/33 75/27 15/13
f 77/33 15/13 16/28
f 78/39 17/43 75/27
f 78/39 75/27 16/28
f 78/39 16/28 17/43
f 79/47 18/42 75/27
f 79/47 75/27 17/43
f 79/47 17/43 18/42
f 80/38 12/36 75/27
f 80/38 75/27 18/42
f 80/38 18/42 12/36
f 81/32 11/19 75/27
f 81/32 75/27 12/36
f 81/32 12/36 11/19
f 83/17 6/4 82/14
f 83/17 82/14 15/13
f 83/17 15/13 6/4
f 84/11 5/8 82/14
f 84/11 82/14 6/4
f 84/11 6/4 5/8
f 85/18 19/20 82/14
f 85/18 82/14 5/8
f 85/18 5/8 19/20
f 86/24 20/29 82/14
f 86/24 82/14 19/20
f 86/24 19/20 20/29
f 87/34 16/28 82/14
f 87/34 82/14 20/29
f 87/34 20/29 16/28
f 88/23 15/13 82/14
f 88/23 82/14 16/28
f 88/23 16/28 15/13
f 90/217 21/220 89/218
f 90/217 89/218 26/219
f 90/217 26/219 21/220
f 91/221 22/223 89/218
f 91/221 89/218 21/220
f 91/221 21/220 22/223
f 92/141 23/129 89/136
f 92/141 89/136 22/145
f 92/141 22/145 23/129
f 93/133 24/124 89/136
f 93/133 89/136 23/129
f 93/133 23/129 24/124
f 94/86 25/83 89/91
f 94/86 89/91 24/75
f 94/86 24/75 25/83
f 95/95 26/100 89/91
f 95/95 89/91 25/83
f 95/95 25/83 26/100
f 97/102 26/100 96/84
f 97/102 96/84 28/101
f 97/102 28/101 26/100
f 98/96 25/83 96/84
f 98/96 96/84 26/100
f 98/96 26/100 25/83
f 99/87 10/69 96/84
f 99/87 96/84 25/83
f 99/87 25/83 10/69
f 100/80 9/76 96/84
f 100/80 96/84 10/69
f 100/80 10/69 9/76
f 101/88 27/92 96/84
f 101/88 96/84 9/76
f 101/88 9/76 27/92
f 102/97 28/101 96/84
f 102/97 96/84 27/92
f 102/97 27/92 28/101
f 104/246 28/241 103/249
f 104/246 103/249 32/233
f 104/246 32/233 28/241
f 105/103 27/92 103/106
f 105/103 103/106 28/101
f 105/103 28/101 27/92
f 106/109 29/107 103/106
f 106/109 103/106 27/92
f 106/109 27/92 29/107
f 107/189 30/185 103/194
f 107/189 103/194 29/179
f 107/189 29/179 30/185
f 108/197 31/202 103/194
f 108/197 103/194 30/185
f 108/197 30/185 31/202
f 109/254 32/233 103/249
f 109/254 103/249 31/248
f 109/254 31/248 32/233
f 111/236 32/233 110/240
f 111/236 110/240 36/228
f 111/236 36/228 32/233
f 112/245 31/248 110/240
f 112/245 110/240 32/233
f 112/245 32/233 31/248
f 113/253 33/258 110/240
f 113/253 110/240 31/248
f 113/253 31/248 33/258
f 114/261 34/257 110/240
f 114/261 110/240 33/258
f 114/261 33/258 34/257
f 115/252 35/239 110/240
f 115/252 110/240 34/257
f 115/252 34/257 35/239
f 116/244 36/228 110/240
f 116/244 110/240 35/239
f 116/244 35/239 36/228
f 118/230 36/228 117/227
f 118/230 117/227 21/220
f 118/230 21/220 36/228
f 119/235 35/239 117/227
f 119/235 117/227 36/228
f 119/235 36/228 35/239
f 120/243 37/238 117/227
f 120/243 117/227 35/239
f 120/243 35/239 37/238
f 121/234 38/232 117/227
f 121/234 117/227 37/238
f 121/234 37/238 38/232
f 122/229 22/223 117/227
f 122/229 117/227 38/232
f 122/229 38/232 22/223
f 123/225 21/220 117/227
f 123/225 117/227 22/223
f 123/225 22/223 21/220
f 125/41 20/29 124/37
f 125/41 124/37 42/45
f 125/41 42/45 20/29
f 126/35 19/20 124/37
f 126/35 124/37 20/29
f 126/35 20/29 19/20
f 127/146 39/134 124/151
f 127/146 124/151 19/142
f 127/146 19/142 39/134
f 128/154 40/152 124/151
f 128/154 124/151 39/134
f 128/154 39/134 40/152
f 129/268 41/271 124/269
f 129/268 124/269 40/270
f 129/268 40/270 41/271
f 130/272 42/274 124/269
f 130/272 124/269 41/271
f 130/272 41/271 42/274
f 132/280 42/274 131/278
f 132/280 131/278 46/283
f 132/280 46/283 42/274
f 133/276 41/271 131/278
f 133/276 131/278 42/274
f 133/276 42/274 41/271
f 134/281 43/279 131/278
f 134/281 131/278 41/271
f 134/281 41/271 43/279
f 135/286 44/290 131/278
f 135/286 131/278 43/279
f 135/286 43/279 44/290
f 136/294 45/289 131/278
f 136/294 131/278 44/290
f 136/294 44/290 45/289
f 137/285 46/283 131/278
f 137/285 131/278 45/289
f 137/285 45/289 46/283
f 139/56 46/55 138/54
f 139/56 138/54 17/43
f 139/56 17/43 46/55
f 140/293 45/289 138/298
f 140/293 138/298 46/283
f 140/293 46/283 45/289
f 141/301 47/306 138/298
f 141/301 138/298 45/289
f 141/301 45/289 47/306
f 142/201 48/180 138/196
f 142/201 138/196 47/195
f 142/201 47/195 48/180
f 143/193 18/188 138/196
f 143/193 138/196 48/180
f 143/193 48/180 18/188
f 144/51 17/43 138/54
f 144/51 138/54 18/42
f 144/51 18/42 17/43
f 146/121 24/124 145/118
f 146/121 145/118 3/113
f 146/121 3/113 24/124
f 147/127 23/129 145/118
f 147/127 145/118 24/124
f 147/127 24/124 23/129
f 148/132 49/128 145/118
f 148/132 145/118 23/129
f 148/132 23/129 49/128
f 149/126 50/123 145/118
f 149/126 145/118 49/128
f 149/126 49/128 50/123
f 150/120 4/114 145/118
f 150/120 145/118 50/123
f 150/120 50/123 4/114
f 151/116 3/113 145/118
f 151/116 145/118 4/114
f 151/116 4/114 3/113
f 153/176 14/170 152/174
f 153/176 152/174 29/179
f 153/176 29/179 14/170
f 154/172 13/167 152/174
f 154/172 152/174 14/170
f 154/172 14/170 13/167
f 155/177 51/175 152/174
f 155/177 152/174 13/167
f 155/177 13/167 51/175
f 156/182 52/186 152/174
f 156/182 152/174 51/175
f 156/182 51/175 52/186
f 157/190 30/185 152/174
f 157/190 152/174 52/186
f 157/190 52/186 30/185
f 158/181 29/179 152/174
f 158/181 152/174 30/185
f 158/181 30/185 29/179
f 160/155 40/152 159/135
f 160/155 159/135 54/153
f 160/155 54/153 40/152
f 161/147 39/134 159/135
f 161/147 159/135 40/152
f 161/147 40/152 39/134
f 162/138 50/123 159/135
f 162/138 159/135 39/134
f 162/138 39/134 50/123
f 163/131 49/128 159/135
f 163/131 159/135 50/123
f 163/131 50/123 49/128
f 164/139 53/143 159/135
f 164/139 159/135 49/128
f 164/139 49/128 53/143
f 165/148 54/153 159/135
f 165/148 159/135 53/143
f 165/148 53/143 54/153
f 167/250 55/255 166/247
f 167/250 166/247 37/238
f 167/250 37/238 55/255
f 168/305 56/284 166/300
f 168/305 166/300 55/299
f 168/305 55/299 56/284
f 169/297 54/292 166/300
f 169/297 166/300 56/284
f 169/297 56/284 54/292
f 170/156 53/143 166/159
f 170/156 166/159 54/153
f 170/156 54/153 53/143
f 171/162 38/160 166/159
f 171/162 166/159 53/143
f 171/162 53/143 38/160
f 172/242 37/238 166/247
f 172/242 166/247 38/232
f 172/242 38/232 37/238
f 174/267 34/257 173/266
f 174/267 173/266 57/265
f 174/267 57/265 34/257
f 175/264 33/258 173/266
f 175/264 173/266 34/257
f 175/264 34/257 33/258
f 176/216 59/204 173/215
f 176/216 173/215 33/214
f 176/216 33/214 59/204
f 177/213 60/205 173/215
f 177/213 173/215 59/204
f 177/213 59/204 60/205
f 178/317 58/308 173/316
f 178/317 173/316 60/315
f 178/317 60/315 58/308
f 179/314 57/309 173/316
f 179/314 173/316 58/308
f 179/314 58/308 57/309
f 181/200 60/205 180/187
f 181/200 180/187 47/195
f 181/200 47/195 60/205
f 182/208 59/204 180/187
f 182/208 180/187 60/205
f 182/208 60/205 59/204
f 183/199 52/186 180/187
f 183/199 180/187 59/204
f 183/199 59/204 52/186
f 184/191 51/175 180/187
f 184/191 180/187 52/186
f 184/191 52/186 51/175
f 185/183 48/180 180/187
f 185/183 180/187 51/175
f 185/183 51/175 48/180
f 186/192 47/195 180/187
f 186/192 180/187 48/180
f 186/192 48/180 47/195
f 188/67 7/70 187/64
f 188/67 187/64 1/59
f 188/67 1/59 7/70
f 189/74 8/77 187/64
f 189/74 187/64 7/70
f 189/74 7/70 8/77
f 190/81 9/76 187/64
f 190/81 187/64 8/77
f 190/81 8/77 9/76
f 191/73 10/69 187/64
f 191/73 187/64 9/76
f 191/73 9/76 10/69
f 192/66 2/60 187/64
f 192/66 187/64 10/69
f 192/66 10/69 2/60
f 193/62 1/59 187/64
f 193/62 187/64 2/60
f 193/62 2/60 1/59
f 195/303 44/290 194/291
f 195/303 194/291 58/308
f 195/303 58/308 44/290
f 196/295 43/279 194/291
f 196/295 194/291 44/290
f 196/295 44/290 43/279
f 197/287 56/284 194/291
f 197/287 194/291 43/279
f 197/287 43/279 56/284
f 198/296 55/299 194/291
f 198/296 194/291 56/284
f 198/296 56/284 55/299
f 199/304 57/309 194/291
f 199/304 194/291 55/299
f 199/304 55/299 57/309
f 200/312 58/308 194/291
f 200/312 194/291 57/309
f 200/312 57/309 58/308
f 202/125 50/123 201/122
f 202/125 201/122 4/114
f 202/125 4/114 50/123
f 203/130 39/134 201/122
f 203/130 201/122 50/123
f 203/130 50/123 39/134
f 204/137 19/142 201/122
f 204/137 201/122 39/134
f 204/137 39/134 19/142
f 205/25 5/8 201/30
f 205/25 201/30 19/20
f 205/25 19/20 5/8
f 206/119 4/114 201/122
f 206/119 201/122 5/117
f 206/119 5/117 4/114
f 208/311 58/308 207/307
f 208/311 207/307 44/290
f 208/311 44/290 58/308
f 209/313 60/315 207/307
f 209/313 207/307 58/308
f 209/313 58/308 60/315
f 210/209 47/195 207/210
f 210/209 207/210 60/205
f 210/209 60/205 47/195
f 211/310 45/289 207/307
f 211/310 207/307 47/306
f 211/310 47/306 45/289
f 212/302 44/290 207/307
f 212/302 207/307 45/289
f 212/302 45/289 44/290
f 214/263 57/265 213/256
f 214/263 213/256 34/257
f 214/263 34/257 57/265
f 215/262 55/255 213/256
f 215/262 213/256 57/265
f 215/262 57/265 55/255
f 216/259 37/238 213/256
f 216/259 213/256 55/255
f 216/259 55/255 37/238
f 217/251 35/239 213/256
f 217/251 213/256 37/238
f 217/251 37/238 35/239
f 218/260 34/257 213/256
f 218/260 213/256 35/239
f 218/260 35/239 34/257
f 220/169 12/166 219/171
f 220/169 219/171 13/167
f 220/169 13/167 12/166
f 221/46 18/42 219/50
f 221/46 219/50 12/36
f 221/46 12/36 18/42
f 222/184 48/180 219/171
f 222/184 219/171 18/188
f 222/184 18/188 48/180
f 223/178 51/175 219/171
f 223/178 219/171 48/180
f 223/178 48/180 51/175
f 224/173 13/167 219/171
f 224/173 219/171 51/175
f 224/173 51/175 13/167
f 226/150 22/145 225/144
f 226/150 225/144 23/129
f 226/150 23/129 22/145
f 227/158 38/160 225/144
f 227/158 225/144 22/145
f 227/158 22/145 38/160
f 228/157 53/143 225/144
f 228/157 225/144 38/160
f 228/157 38/160 53/143
f 229/149 49/128 225/144
f 229/149 225/144 53/143
f 229/149 53/143 49/128
f 230/140 23/129 225/144
f 230/140 225/144 49/128
f 230/140 49/128 23/129
f 232/198 52/186 231/203
f 232/198 231/203 30/185
f 232/198 30/185 52/186
f 233/207 59/204 231/203
f 233/207 231/203 52/186
f 233/207 52/186 59/204
f 234/212 33/214 231/203
f 234/212 231/203 59/204
f 234/212 59/204 33/214
f 235/211 31/202 231/203
f 235/211 231/203 33/214
f 235/211 33/214 31/202
f 236/206 30/185 231/203
f 236/206 231/203 31/202
f 236/206 31/202 30/185
f 238/89 8/77 237/93
f 238/89 237/93 9/76
f 238/89 9/76 8/77
f 239/99 14/94 237/93
f 239/99 237/93 8/77
f 239/99 8/77 14/94
f 240/105 29/107 237/93
f 240/105 237/93 14/94
f 240/105 14/94 29/107
f 241/104 27/92 237/93
f 241/104 237/93 29/107
f 241/104 29/107 27/92
f 242/98 9/76 237/93
f 242/98 237/93 27/92
f 242/98 27/92 9/76
f 244/10 15/13 243/7
f 244/10 243/7 6/4
f 244/10 6/4 15/13
f 245/16 11/19 243/7
f 245/16 243/7 15/13
f 245/16 15/13 11/19
f 246/15 7/12 243/7
f 246/15 243/7 11/19
f 246/15 11/19 7/12
f 247/9 1/2 243/7
f 247/9 243/7 7/12
f 247/9 7/12 1/2
f 248/5 6/4 243/7
f 248/5 243/7 1/2
f 248/5 1/2 6/4
f 250/65 2/60 249/68
f 250/65 249/68 3/63
f 250/65 3/63 2/60
f 251/72 10/69 249/68
f 251/72 249/68 2/60
f 251/72 2/60 10/69
f 252/79 25/83 249/68
f 252/79 249/68 10/69
f 252/79 10/69 25/83
f 253/78 24/75 249/68
f 253/78 249/68 25/83
f 253/78 25/83 24/75
f 254/71 3/63 249/68
f 254/71 249/68 24/75
f 254/71 24/75 3/63
f 256/161 54/153 255/163
f 256/161 255/163 40/152
f 256/161 40/152 54/153
f 257/288 56/284 255/275
f 257/288 255/275 54/292
f 257/288 54/292 56/284
f 258/282 43/279 255/275
f 258/282 255/275 56/284
f 258/282 56/284 43/279
f 259/277 41/271 255/275
f 259/277 255/275 43/279
f 259/277 43/279 41/271
f 260/273 40/270 255/275
f 260/273 255/275 41/271
f 260/273 41/271 40/270
f 262/222 26/219 261/224
f 262/222 261/224 21/220
f 262/222 21/220 26/219
f 263/108 28/101 261/110
f 263/108 261/110 26/100
f 263/108 26/100 28/101
f 264/237 32/233 261/224
f 264/237 261/224 28/241
f 264/237 28/241 32/233
f 265/231 36/228 261/224
f 265/231 261/224 32/233
f 265/231 32/233 36/228
f 266/226 21/220 261/224
f 266/226 261/224 36/228
f 266/226 36/228 21/220
f 268/48 16/28 267/44
f 268/48 267/44 17/43
f 268/48 17/43 16/28
f 269/40 20/29 267/44
f 269/40 267/44 16/28
f 269/40 16/28 20/29
f 270/49 42/45 267/44
f 270/49 267/44 20/29
f 270/49 20/29 42/45
f 271/53 46/55 267/44
f 271/53 267/44 42/45
f 271/53 42/45 46/55
f 272/52 17/43 267/44
f 272/52 267/44 46/55
f 272/52 46/55 17/43
