# This file uses centimeters as units for non-parametric coordinates.

v 0.000000 1.000000 0.000000
v 1.000000 0.000000 0.000000
v 0.000000 0.000000 -1.000000
v -1.000000 0.000000 0.000000
v 0.000000 0.000000 1.000000
v 0.000000 -1.000000 0.000000
v -1.083890 -1.083890 1.083890
v -0.444444 -0.444444 0.111111
v -0.111111 -0.444444 0.444444
v -0.444444 -0.111111 0.444444
v 1.083890 1.083890 1.083890
v 0.111111 0.444444 0.444444
v 0.444444 0.111111 0.444444
v 0.444444 0.444444 0.111111
v 1.083890 1.083890 -1.083890
v 0.111111 0.444444 -0.444444
v 0.444444 0.444444 -0.111111
v 0.444444 0.111111 -0.444444
v -1.083890 1.083890 -1.083890
v -0.444444 0.444444 -0.111111
v -0.111111 0.444444 -0.444444
v -0.444444 0.111111 -0.444444
v -1.083890 1.083890 1.083890
v -0.444444 0.111111 0.444444
v -0.111111 0.444444 0.444444
v -0.444444 0.444444 0.111111
v 1.083890 -1.083890 1.083890
v 0.444444 -0.444444 0.111111
v 0.444444 -0.111111 0.444444
v 0.111111 -0.444444 0.444444
v 1.083890 -1.083890 -1.083890
v 0.111111 -0.444444 -0.444444
v 0.444444 -0.111111 -0.444444
v 0.444444 -0.444444 -0.111111
v -1.083890 -1.083890 -1.083890
v -0.444444 -0.444444 -0.111111
v -0.444444 -0.111111 -0.444444
v -0.111111 -0.444444 -0.444444
vt 0.267932 0.391519
vt 0.333533 0.473519
vt 0.173549 0.485902
vt 0.185931 0.325918
vt 0.067593 0.178343
vt 0.149593 0.161943
vt 0.161976 0.321927
vt 0.001992 0.161943
vt 0.067593 0.145543
vt 0.161976 0.001960
vt 0.101813 0.420301
vt 0.019813 0.485902
vt 0.007430 0.325918
vt 0.167414 0.338301
vt 0.067593 0.555494
vt 0.149593 0.489893
vt 0.161976 0.649877
vt 0.001992 0.637495
vt 0.235397 0.584276
vt 0.169797 0.502276
vt 0.329780 0.489893
vt 0.317398 0.649877
vt 0.403007 0.600676
vt 0.337407 0.518676
vt 0.497390 0.506293
vt 0.485008 0.666277
vt 0.264180 0.145543
vt 0.182179 0.161943
vt 0.169797 0.001960
vt 0.329780 0.161943
vt 0.264180 0.178343
vt 0.169797 0.321927
vt 0.737506 0.358719
vt 0.819507 0.342318
vt 0.831889 0.502302
vt 0.671906 0.342318
vt 0.737506 0.325918
vt 0.570617 0.600676
vt 0.505017 0.518676
vt 0.665000 0.506293
vt 0.652618 0.666277
vt 0.403007 0.178343
vt 0.485008 0.161943
vt 0.497390 0.321927
vt 0.337407 0.161943
vt 0.403007 0.145543
vt 0.497390 0.001960
vt 0.672627 0.522694
vt 0.754627 0.506293
vt 0.767009 0.666277
vt 0.599400 0.145543
vt 0.517399 0.161943
vt 0.505017 0.001960
vt 0.665000 0.161943
vt 0.599400 0.178343
vt 0.505017 0.321927
vt 0.298615 0.735869
vt 0.364215 0.817870
vt 0.204232 0.830252
vt 0.216614 0.670268
vt 0.868355 0.571894
vt 0.933956 0.653895
vt 0.773972 0.666277
vt 0.786354 0.506293
vt 0.998008 0.764651
vt 0.916007 0.830252
vt 0.903625 0.670268
vt 0.803107 0.735869
vt 0.885107 0.670268
vt 0.897490 0.830252
vt 0.737506 0.817870
vt 0.636988 0.764651
vt 0.571387 0.682651
vt 0.731371 0.670268
vt 0.718988 0.830252
vt 0.565252 0.764651
vt 0.483251 0.830252
vt 0.470869 0.670268
vt 0.767009 0.145543
vt 0.685009 0.161943
vt 0.672627 0.001960
vt 0.832610 0.161943
vt 0.767009 0.178343
vt 0.672627 0.321927
vt 0.571387 0.358719
vt 0.653388 0.342318
vt 0.665770 0.502302
vt 0.505787 0.342318
vt 0.571387 0.325918
vt 0.434051 0.469502
vt 0.352050 0.485902
vt 0.339668 0.325918
vt 0.499651 0.485902
vt 0.434051 0.502302
vt 0.932407 0.469502
vt 0.850407 0.485902
vt 0.838024 0.325918
vt 0.998008 0.485902
vt 0.932407 0.502302
vt 0.198096 0.797452
vt 0.116096 0.813852
vt 0.103713 0.653868
vt 0.370351 0.686669
vt 0.452351 0.670268
vt 0.464734 0.830252
vt 0.392122 0.899844
vt 0.457723 0.981845
vt 0.310121 0.834243
vt 0.097578 0.735869
vt 0.081178 0.801469
vt 0.081178 0.653868
vt 0.064778 0.735869
vt 0.067593 0.899844
vt 0.001992 0.817843
vt 0.149593 0.965444
vt 0.480489 0.916244
vt 0.464089 0.981845
vt 0.464089 0.834243
vt 0.221755 0.916244
vt 0.156154 0.834243
vt 0.303755 0.981845
f 8/1 6/2 7/3
f 8/1 7/3 4/4
f 8/99 4/96 6/98
f 9/5 5/6 7/7
f 9/5 7/7 6/8
f 9/5 6/8 5/6
f 10/11 4/12 7/13
f 10/11 7/13 5/14
f 10/106 5/107 4/108
f 12/15 5/16 11/17
f 12/15 11/17 1/18
f 12/109 1/110 5/111
f 13/19 2/20 11/21
f 13/19 11/21 5/22
f 13/113 5/114 2/115
f 14/23 1/24 11/25
f 14/23 11/25 2/26
f 14/37 2/34 1/36
f 16/27 1/28 15/29
f 16/27 15/29 3/30
f 16/27 3/30 1/28
f 17/33 2/34 15/35
f 17/33 15/35 1/36
f 17/33 1/36 2/34
f 18/38 3/39 15/40
f 18/38 15/40 2/41
f 18/89 2/86 3/88
f 20/42 1/43 19/44
f 20/42 19/44 4/45
f 20/42 4/45 1/43
f 21/48 3/49 19/50
f 21/31 19/32 1/28
f 21/31 1/28 3/30
f 22/51 4/52 19/53
f 22/51 19/53 3/54
f 22/51 3/54 4/52
f 24/57 5/58 23/59
f 24/57 23/59 4/60
f 24/116 4/117 5/118
f 25/61 1/62 23/63
f 25/61 23/63 5/64
f 25/112 5/111 1/110
f 26/65 4/66 23/67
f 26/46 23/47 1/43
f 26/46 1/43 4/45
f 28/68 2/69 27/70
f 28/68 27/70 6/71
f 28/94 6/91 2/93
f 29/72 5/73 27/74
f 29/72 27/74 2/75
f 29/119 2/120 5/121
f 30/76 6/77 27/78
f 30/9 27/10 5/6
f 30/9 5/6 6/8
f 32/79 3/80 31/81
f 32/79 31/81 6/82
f 32/79 6/82 3/80
f 33/85 2/86 31/87
f 33/85 31/87 3/88
f 33/85 3/88 2/86
f 34/90 6/91 31/92
f 34/90 31/92 2/93
f 34/90 2/93 6/91
f 36/95 4/96 35/97
f 36/95 35/97 6/98
f 36/95 6/98 4/96
f 37/100 3/101 35/102
f 37/55 35/56 4/52
f 37/55 4/52 3/54
f 38/103 6/104 35/105
f 38/83 35/84 3/80
f 38/83 3/80 6/82
