# This file uses centimeters as units for non-parametric coordinates.

mtllib candy2.mtl
v -0.371255 0.270968 0.507574
v 0.175169 0.270968 0.507574
v -0.371250 0.270829 -0.478669
v 0.175165 0.270829 -0.478669
v -0.371251 -0.078045 -0.478817
v 0.175166 -0.078045 -0.478817
v -0.455874 0.173429 -0.480523
v 0.259789 0.173429 -0.480523
v -0.502681 -0.008451 0.506884
v -0.456074 -0.008813 -0.480332
v 0.259988 -0.008813 -0.480332
v -0.457520 -0.079579 0.393043
v 0.261435 -0.079579 0.393043
v 0.405733 -0.008360 0.392727
v 0.261426 0.272763 -0.360879
v -0.457511 0.272763 -0.360879
v -0.601812 -0.008358 -0.360460
v 0.397510 0.251563 -0.360682
v 0.397514 -0.060592 -0.360686
v -0.592574 -0.008289 -0.455527
v -0.098043 0.280300 -0.365775
v -0.450508 0.272585 -0.455540
v 0.254422 0.272585 -0.455540
v 0.396507 -0.008295 0.486137
v -0.098043 -0.086280 0.398003
v 0.254443 -0.079437 0.486171
v -0.450528 -0.079437 0.486171
v 0.396488 -0.008289 -0.455527
v -0.098043 -0.014860 -0.488280
v 0.253912 -0.061615 -0.480285
v -0.592592 -0.008295 0.486137
v -0.449997 -0.061615 -0.480285
v -0.098043 -0.014932 0.515953
v -0.098043 0.177985 -0.489706
v 0.259632 0.066372 -0.480848
v -0.455718 0.066372 -0.480848
v -0.449995 0.252610 0.508808
v 0.253910 0.252610 0.508808
v 0.254423 -0.079421 -0.455558
v -0.450509 -0.079421 -0.455558
v 0.253906 0.252572 -0.480264
v -0.449992 0.252572 -0.480264
v 0.254442 0.272600 0.486153
v -0.450527 0.272600 0.486153
v -0.098043 -0.088672 -0.489933
v -0.098043 0.282292 -0.489339
v -0.098043 0.282847 0.517410
v 0.387629 0.251531 -0.454988
v 0.396044 0.066532 -0.455768
v 0.387634 -0.060559 -0.454990
v -0.098043 -0.086943 -0.464001
v -0.583720 -0.060559 -0.454990
v -0.583715 0.251531 -0.454988
v -0.098043 0.281043 -0.463892
v -0.593998 -0.061699 -0.028429
v -0.593993 0.252669 -0.028428
v -0.098043 0.064378 -0.492060
v 0.387651 0.251535 0.485587
v -0.098043 0.261915 -0.490159
v -0.583737 0.251535 0.485587
v -0.098043 0.262172 0.517616
v -0.583741 -0.060563 0.485589
v 0.387656 -0.060563 0.485589
v -0.098043 -0.087031 0.494542
v -0.098043 -0.070856 -0.490292
v -0.098043 0.281127 0.494429
v -0.098043 -0.071123 0.517750
v -0.290775 -0.067329 0.514683
v 0.094690 -0.067329 0.514683
v -0.098043 -0.049208 0.516291
v -0.098043 -0.083830 0.518802
v -0.291212 0.278654 0.491305
v 0.095126 0.278654 0.491305
v -0.098043 0.280300 0.397988
v -0.098043 0.283318 0.514236
v -0.290779 -0.067155 -0.486900
v 0.094693 -0.067155 -0.486900
v -0.098043 -0.083346 -0.491214
v -0.098043 -0.049072 -0.488771
v -0.291211 -0.084811 0.491379
v 0.095126 -0.084811 0.491379
v -0.098043 -0.089274 0.516334
v 0.299498 -0.060946 0.506568
v 0.397521 -0.060593 0.392845
v 0.399411 -0.040255 0.485938
v 0.345224 -0.072525 0.485057
v -0.593607 -0.060593 0.392845
v -0.495583 -0.060946 0.506568
v -0.595496 -0.040255 0.485938
v -0.541309 -0.072525 0.485057
v -0.290770 0.258338 0.514594
v 0.094685 0.258338 0.514594
v -0.098043 0.276270 0.518367
v -0.098043 0.239015 0.516287
v -0.593603 0.251564 0.392841
v -0.541160 0.251190 0.504306
v -0.541305 0.264680 0.485056
v -0.595495 0.230023 0.485939
v -0.290774 0.258170 -0.486812
v 0.094688 0.258170 -0.486812
v -0.098043 0.238880 -0.488767
v -0.098043 0.275814 -0.490795
v 0.345075 0.251190 0.504306
v 0.397518 0.251564 0.392841
v 0.345220 0.264680 0.485056
v 0.399410 0.230023 0.485939
v 0.097782 0.065163 0.516125
v -0.098043 0.178011 0.517439
v -0.098043 0.064315 0.519890
v -0.548888 0.066604 0.505002
v -0.592347 0.173072 0.486245
v -0.592148 0.066530 0.486380
v -0.293869 0.065202 -0.488110
v 0.405018 0.066255 0.393069
v 0.396261 0.173072 0.486245
v 0.396062 0.066530 0.486380
v -0.098043 0.288607 0.017171
v -0.098043 -0.092263 -0.028526
v 0.397913 -0.061699 -0.028429
v 0.401870 0.062471 -0.025703
v 0.397908 0.252669 -0.028428
v -0.291199 0.278598 -0.460735
v 0.095114 0.278598 -0.460735
v -0.098043 0.282961 -0.485022
v -0.541144 0.251189 -0.474792
v -0.593596 0.251563 -0.360682
v -0.541283 0.264678 -0.454442
v -0.595475 0.230017 -0.455338
v -0.601096 0.066256 -0.360408
v -0.592328 0.173067 -0.455635
v -0.592129 0.066532 -0.455768
v -0.541150 -0.060236 -0.474792
v -0.593599 -0.060592 -0.360686
v -0.595476 -0.040250 -0.455337
v -0.541287 -0.072524 -0.454443
v -0.291198 -0.084752 -0.460806
v 0.095113 -0.084752 -0.460806
v -0.098043 -0.086280 -0.365780
v -0.098043 -0.088901 -0.485403
v 0.399391 -0.040250 -0.455337
v 0.345202 -0.072524 -0.454443
v 0.345065 -0.060236 -0.474792
v 0.396243 0.173067 -0.455635
v 0.352788 0.066605 -0.475496
v 0.345197 0.264678 -0.454442
v 0.399390 0.230017 -0.455338
v 0.345059 0.251189 -0.474792
v 0.065516 0.277768 0.512958
v 0.065518 0.277408 -0.484561
v 0.065514 -0.084109 -0.484945
v -0.457519 0.272763 0.393040
v 0.261434 0.272763 0.393040
v -0.458296 0.231009 -0.480427
v 0.262211 0.231009 -0.480427
v -0.457512 -0.079578 -0.360881
v 0.261426 -0.079578 -0.360881
v 0.222065 0.264747 0.507639
v -0.418151 0.264747 0.507639
v 0.259791 0.173433 0.509083
v -0.455877 0.173433 0.509083
v -0.294066 -0.012564 0.513607
v -0.418151 -0.072655 -0.478987
v -0.601819 -0.008360 0.392727
v 0.222066 -0.072655 -0.478987
v 0.097981 -0.012517 -0.485696
v 0.405726 -0.008358 -0.360460
v -0.394890 -0.078316 0.505984
v 0.198805 -0.078316 0.505984
v 0.306596 -0.008451 0.506884
v 0.222424 0.271381 -0.474562
v -0.418509 0.271381 -0.474562
v -0.294850 0.278236 -0.364062
v -0.549271 -0.008073 -0.475382
v 0.409150 -0.040256 -0.360723
v 0.405350 0.172958 -0.360438
v 0.354288 0.264864 -0.360372
v 0.403079 -0.012146 -0.027837
v 0.261613 -0.080497 -0.028341
v -0.457699 -0.080497 -0.028341
v -0.294181 -0.084697 0.349986
v -0.599164 -0.012146 -0.027837
v -0.457697 0.273667 -0.028349
v 0.261612 0.273667 -0.028349
v 0.353186 -0.008073 -0.475382
v -0.294066 -0.012517 -0.485696
v 0.262214 -0.041223 -0.480428
v -0.458300 -0.041223 -0.480428
v 0.097980 -0.012564 0.513607
v -0.455720 0.066363 0.509423
v 0.259635 0.066363 0.509423
v -0.293974 0.176167 -0.486579
v -0.458299 0.231030 0.508944
v 0.262214 0.231030 0.508944
v 0.222426 -0.078387 -0.474616
v -0.418511 -0.078387 -0.474616
v 0.222062 0.264684 -0.478930
v -0.418147 0.264684 -0.478930
v 0.222436 0.271429 0.504183
v -0.418522 0.271429 0.504183
v -0.261599 -0.084109 -0.484945
v -0.261603 0.277408 -0.484561
v -0.261602 0.277768 0.512958
v -0.295315 -0.046062 0.513857
v 0.077338 -0.079281 0.514775
v 0.099230 -0.046062 0.513857
v -0.294853 0.278236 0.396254
v 0.077680 0.279367 0.510191
v 0.098768 0.278236 0.396254
v -0.273427 -0.078966 -0.486837
v 0.099232 -0.045972 -0.486051
v 0.077342 -0.078966 -0.486837
v -0.267678 -0.085069 0.511909
v 0.098768 -0.084428 0.396264
v 0.071593 -0.085069 0.511909
v 0.309006 -0.040647 0.506838
v 0.354300 -0.072691 0.392527
v 0.409157 -0.040258 0.392879
v -0.605242 -0.040258 0.392879
v -0.460000 -0.072151 0.505482
v -0.505091 -0.040647 0.506838
v -0.273423 0.271545 0.514495
v 0.099227 0.235860 0.513854
v 0.077337 0.271545 0.514495
v -0.550382 0.264864 0.392524
v -0.551876 0.229826 0.504733
v -0.501840 0.263629 0.503271
v -0.295314 0.235771 -0.486048
v 0.077341 0.271248 -0.486567
v 0.099229 0.235771 -0.486048
v 0.305754 0.263629 0.503271
v 0.409156 0.230036 0.392877
v 0.354297 0.264864 0.392524
v -0.293974 0.176181 0.514529
v 0.097889 0.176181 0.514529
v -0.601443 0.172960 0.392856
v -0.549062 0.172900 0.504940
v 0.097889 0.176167 -0.486579
v 0.097784 0.065202 -0.488110
v 0.352977 0.172900 0.504940
v 0.405358 0.172960 0.392856
v 0.098983 0.282053 -0.028517
v -0.550906 0.265222 -0.028385
v -0.598530 0.174462 -0.027033
v -0.604281 -0.042841 -0.028450
v 0.098982 -0.088307 -0.028484
v 0.354825 -0.073051 -0.028386
v 0.408200 0.232696 -0.028452
v -0.273752 0.279140 -0.480811
v 0.098764 0.278236 -0.364062
v 0.077667 0.279140 -0.480811
v -0.501824 0.263633 -0.473661
v -0.605234 0.230034 -0.360721
v -0.550374 0.264864 -0.360372
v -0.549048 0.172897 -0.475435
v -0.601436 0.172958 -0.360438
v -0.551864 -0.040049 -0.475238
v -0.550377 -0.072691 -0.360375
v -0.605236 -0.040256 -0.360723
v -0.294850 -0.084428 -0.364066
v 0.077661 -0.085401 -0.481064
v 0.098095 -0.084698 -0.317275
v 0.355778 -0.040049 -0.475238
v 0.354292 -0.072691 -0.360375
v 0.305744 -0.071585 -0.473657
v 0.352963 0.172897 -0.475435
v 0.405011 0.066256 -0.360408
v 0.305739 0.263633 -0.473661
v 0.409149 0.230034 -0.360721
v 0.355776 0.229824 -0.475239
v -0.273747 -0.085401 -0.481064
v -0.501829 -0.071585 -0.473657
v -0.548874 0.066605 -0.475496
v -0.551861 0.229824 -0.475239
v 0.354821 0.265222 -0.028385
v 0.402444 0.174462 -0.027033
v 0.408196 -0.042841 -0.028450
v -0.295068 -0.088307 -0.028484
v -0.550910 -0.073051 -0.028386
v -0.597956 0.062471 -0.025703
v -0.604285 0.232696 -0.028452
v -0.295068 0.282053 -0.028517
v 0.352803 0.066604 0.505002
v -0.601104 0.066255 0.393069
v -0.293868 0.065163 0.516125
v 0.355791 0.229826 0.504733
v -0.273426 0.271248 -0.486567
v -0.605241 0.230036 0.392877
v -0.295313 0.235860 0.513854
v -0.550385 -0.072691 0.392527
v 0.263914 -0.072151 0.505482
v -0.295317 -0.045972 -0.486051
v -0.273765 0.279367 0.510191
v -0.273423 -0.079281 0.514775
vt 0.831825 0.834560
vt 0.828718 0.776026
vt 0.831382 0.778669
vt 0.834662 0.864519
vt 0.992542 0.823685
vt 0.995671 0.773230
vt 0.996406 0.778827
vt 0.992754 0.845434
vt 0.783906 0.862703
vt 0.785610 0.788159
vt 0.801004 0.788734
vt 0.798819 0.863728
vt 0.947663 0.862622
vt 0.948928 0.788125
vt 0.976388 0.788741
vt 0.974165 0.863737
vt 0.655234 0.823673
vt 0.652207 0.773221
vt 0.655041 0.778662
vt 0.658061 0.845252
vt 0.947663 0.533321
vt 0.947418 0.490443
vt 0.973611 0.489148
vt 0.974165 0.532206
vt 0.863973 0.884158
vt 0.862080 0.788168
vt 0.897844 0.788077
vt 0.898397 0.862550
vt 0.863973 0.511785
vt 0.898508 0.490523
vt 0.898397 0.533393
vt 0.529343 0.059077
vt 0.604190 0.057597
vt 0.604091 0.253048
vt 0.529261 0.252970
vt 0.455802 0.859301
vt 0.456494 0.705891
vt 0.483289 0.706544
vt 0.482064 0.859431
vt 0.372373 0.859311
vt 0.370630 0.706261
vt 0.404963 0.705279
vt 0.406705 0.859287
vt 0.065302 0.061231
vt 0.065216 0.214243
vt 0.022327 0.214222
vt 0.022572 0.061464
vt 0.140148 0.059766
vt 0.140048 0.214177
vt 0.523530 0.859512
vt 0.508853 0.859582
vt 0.507664 0.665715
vt 0.521788 0.665997
vt 0.860155 0.059077
vt 0.902884 0.059314
vt 0.903125 0.252987
vt 0.860237 0.252970
vt 0.700051 0.862611
vt 0.700296 0.905483
vt 0.674102 0.906778
vt 0.673556 0.863726
vt 0.783565 0.905586
vt 0.749204 0.905403
vt 0.749311 0.862539
vt 0.815762 0.823674
vt 0.815919 0.845420
vt 0.812789 0.883757
vt 0.813281 0.845254
vt 0.818552 0.773220
vt 0.819146 0.778809
vt 0.663635 0.536019
vt 0.664271 0.494077
vt 0.674102 0.489146
vt 0.673556 0.532198
vt 0.607010 0.469154
vt 0.633215 0.469291
vt 0.633222 0.512827
vt 0.606960 0.512958
vt 0.856929 0.449534
vt 0.898697 0.449029
vt 0.880541 0.457872
vt 0.842205 0.458287
vt 0.523563 0.469204
vt 0.557990 0.469093
vt 0.557863 0.512971
vt 0.523531 0.512947
vt 0.808202 0.536017
vt 0.807567 0.494075
vt 0.812789 0.512167
vt 0.813281 0.550670
vt 0.392886 0.017667
vt 0.434656 0.018180
vt 0.438838 0.061464
vt 0.396108 0.061231
vt 0.783665 0.470413
vt 0.798371 0.469078
vt 0.798278 0.489145
vt 0.783565 0.490338
vt 0.319582 0.015252
vt 0.311552 0.005931
vt 0.378163 0.008898
vt 0.068525 0.017667
vt 0.141828 0.015252
vt 0.372404 0.903054
vt 0.357698 0.902967
vt 0.357695 0.859432
vt 0.808202 0.859907
vt 0.807567 0.901850
vt 0.798278 0.906779
vt 0.532569 0.449534
vt 0.490800 0.449029
vt 0.486617 0.405744
vt 0.529346 0.405978
vt 0.663635 0.859905
vt 0.664271 0.901847
vt 0.658545 0.883754
vt 0.694749 0.465086
vt 0.694749 0.463100
vt 0.775598 0.461162
vt 0.770008 0.462888
vt 0.783626 0.451925
vt 0.785306 0.407442
vt 0.860151 0.405978
vt 0.605872 0.451925
vt 0.613899 0.461162
vt 0.547292 0.458287
vt 0.643129 0.512845
vt 0.643638 0.665725
vt 0.634447 0.665714
vt 0.458726 0.061321
vt 0.458910 0.214202
vt 0.439084 0.214222
vt 0.230705 0.410417
vt 0.230705 0.214158
vt 0.321362 0.214177
vt 0.321264 0.409617
vt 0.002681 0.408043
vt 0.002501 0.214202
vt 0.022568 0.407897
vt 0.348338 0.859415
vt 0.347828 0.706533
vt 0.356506 0.706543
vt 0.491971 0.512694
vt 0.492479 0.706533
vt 0.482065 0.512677
vt 0.466730 0.405887
vt 0.466547 0.253007
vt 0.486372 0.252987
vt 0.694749 0.408230
vt 0.694749 0.253075
vt 0.785406 0.253048
vt 0.786688 0.697962
vt 0.750228 0.697962
vt 0.749849 0.607856
vt 0.785610 0.607766
vt 0.749311 0.533385
vt 0.698791 0.607808
vt 0.700051 0.533313
vt 0.856938 0.016232
vt 0.898708 0.016737
vt 0.984095 0.536027
vt 0.983441 0.494079
vt 0.989165 0.512172
vt 0.989680 0.550680
vt 0.697954 0.697962
vt 0.669935 0.697962
vt 0.671365 0.607191
vt 0.661059 0.609281
vt 0.655041 0.617263
vt 0.658061 0.550672
vt 0.661059 0.786644
vt 0.671365 0.788733
vt 0.532560 0.016232
vt 0.490790 0.016737
vt 0.508949 0.008356
vt 0.547287 0.007936
vt 0.984095 0.859915
vt 0.983441 0.901863
vt 0.973611 0.906794
vt 0.998008 0.697971
vt 0.994981 0.697971
vt 0.992808 0.617274
vt 0.995671 0.622713
vt 0.986730 0.609291
vt 0.976388 0.607201
vt 0.986730 0.786651
vt 0.992808 0.778669
vt 0.989680 0.845263
vt 0.864044 0.925529
vt 0.849338 0.926865
vt 0.849158 0.885267
vt 0.523560 0.902493
vt 0.508854 0.902401
vt 0.392894 0.450986
vt 0.319588 0.453382
vt 0.396112 0.408134
vt 0.068516 0.450986
vt 0.141822 0.453382
vt 0.152651 0.462829
vt 0.083242 0.459300
vt 0.820651 0.697962
vt 0.818201 0.697962
vt 0.816185 0.617262
vt 0.818552 0.622705
vt 0.810751 0.609278
vt 0.801004 0.607190
vt 0.798819 0.532197
vt 0.810751 0.786646
vt 0.816185 0.778662
vt 0.783632 0.013862
vt 0.775604 0.005172
vt 0.842211 0.007936
vt 0.605866 0.013862
vt 0.860990 0.697971
vt 0.845219 0.697971
vt 0.846667 0.607200
vt 0.862080 0.607775
vt 0.839818 0.515051
vt 0.836881 0.609289
vt 0.831382 0.617273
vt 0.834662 0.531424
vt 0.839818 0.880892
vt 0.836881 0.786654
vt 0.846667 0.788742
vt 0.835135 0.697971
vt 0.828718 0.619917
vt 0.829288 0.697971
vt 0.826787 0.697971
vt 0.831825 0.561383
vt 0.849158 0.510676
vt 0.694749 0.056800
vt 0.694749 0.012424
vt 0.770007 0.003898
vt 0.694749 0.003310
vt 0.694749 0.001850
vt 0.992754 0.550509
vt 0.996406 0.617116
vt 0.992542 0.572258
vt 0.785308 0.057597
vt 0.812454 0.697962
vt 0.802430 0.697962
vt 0.783906 0.533221
vt 0.815762 0.572250
vt 0.230705 0.464865
vt 0.230705 0.454837
vt 0.378168 0.459300
vt 0.308760 0.462829
vt 0.849338 0.469078
vt 0.864044 0.470414
vt 0.839994 0.474486
vt 0.438842 0.407897
vt 0.434666 0.450473
vt 0.458729 0.408043
vt 0.454190 0.450718
vt 0.499496 0.859566
vt 0.499510 0.902241
vt 0.372372 0.512746
vt 0.357694 0.512676
vt 0.357696 0.469857
vt 0.372401 0.469766
vt 0.348337 0.512692
vt 0.348352 0.470018
vt 0.044903 0.458852
vt 0.026744 0.450473
vt 0.834490 0.901932
vt 0.839994 0.921456
vt 0.988495 0.697971
vt 0.948928 0.607817
vt 0.977839 0.697971
vt 0.949769 0.697971
vt 0.486614 0.059314
vt 0.466726 0.059168
vt 0.471266 0.016493
vt 0.947418 0.905499
vt 0.973702 0.926865
vt 0.947497 0.925416
vt 0.983600 0.921454
vt 0.989165 0.883771
vt 0.989648 0.901930
vt 0.698791 0.788116
vt 0.659335 0.697962
vt 0.652207 0.622703
vt 0.652940 0.697962
vt 0.649960 0.697962
vt 0.655234 0.572251
vt 0.880548 0.008356
vt 0.989648 0.494013
vt 0.983600 0.474489
vt 0.606961 0.859571
vt 0.633223 0.859581
vt 0.633217 0.902402
vt 0.607013 0.902543
vt 0.643129 0.859564
vt 0.643116 0.902240
vt 0.922771 0.059168
vt 0.918232 0.016493
vt 0.897455 0.697971
vt 0.897844 0.607866
vt 0.455854 0.469716
vt 0.455803 0.512687
vt 0.406704 0.512589
vt 0.406831 0.469654
vt 0.898508 0.905419
vt 0.898473 0.925324
vt 0.749849 0.788068
vt 0.947497 0.470527
vt 0.898473 0.470618
vt 0.557863 0.859670
vt 0.557989 0.902605
vt 0.604192 0.407442
vt 0.065298 0.408134
vt 0.140146 0.409617
vt 0.321262 0.059766
vt 0.230705 0.058977
vt 0.396194 0.214243
vt 0.508854 0.512826
vt 0.498987 0.665725
vt 0.499496 0.512843
vt 0.607652 0.666368
vt 0.556122 0.666979
vt 0.902880 0.405744
vt 0.922951 0.253007
vt 0.922768 0.405887
vt 0.619489 0.462888
vt 0.694749 0.453377
vt 0.654980 0.845419
vt 0.651410 0.778812
vt 0.651410 0.617113
vt 0.654980 0.550506
vt 0.508956 0.457872
vt 0.658064 0.901911
vt 0.664113 0.921435
vt 0.482056 0.902967
vt 0.455852 0.903104
vt 0.491970 0.859413
vt 0.491956 0.902806
vt 0.471276 0.449280
vt 0.700217 0.925398
vt 0.749237 0.925307
vt 0.406832 0.903165
vt 0.798371 0.926847
vt 0.783665 0.925511
vt 0.807716 0.921437
vt 0.026755 0.018180
vt 0.002684 0.061321
vt 0.007230 0.017929
vt 0.348353 0.902807
vt 0.230705 0.013782
vt 0.305963 0.004145
vt 0.230705 0.003934
vt 0.230705 0.001850
vt 0.815919 0.550505
vt 0.819146 0.617115
vt 0.807716 0.474487
vt 0.454180 0.017929
vt 0.416500 0.009339
vt 0.813221 0.494012
vt 0.700296 0.490441
vt 0.749204 0.490521
vt 0.700217 0.470526
vt 0.749237 0.470618
vt 0.658545 0.512170
vt 0.658064 0.494014
vt 0.664113 0.474489
vt 0.643114 0.469452
vt 0.674013 0.469078
vt 0.918222 0.449280
vt 0.508856 0.469292
vt 0.499512 0.469451
vt 0.149858 0.005931
vt 0.155448 0.004145
vt 0.083247 0.008898
vt 0.813221 0.901913
vt 0.044910 0.009339
vt 0.674013 0.926846
vt 0.973702 0.469078
vt 0.482059 0.469857
vt 0.491957 0.470019
vt 0.007220 0.450718
vt 0.834490 0.494011
vt 0.416507 0.458852
vt 0.613893 0.005172
vt 0.619490 0.003898
usemtl candy_null_
f 167/1 212/2 293/3 219/4
f 1/5 202/6 292/7 199/8
f 10/9 185/10 291/11 187/12
f 160/13 233/14 288/15 192/16
f 3/17 201/18 286/19 197/20
f 159/21 239/22 285/23 193/24
f 9/25 161/26 284/27 189/28
f 169/29 282/30 190/31
f 151/32 206/33 281/34 182/35
f 255/36 243/37 280/38 252/39
f 17/40 181/41 279/42 129/43
f 155/44 179/45 278/46 257/47
f 155/44 259/48 277/49 179/45
f 14/50 217/51 276/52 177/53
f 152/54 232/55 274/56 183/57
f 7/58 254/59 273/60 153/61
f 10/9 173/62 272/63 36/64
f 5/65 195/66 271/67 162/68
f 5/65 200/69 270/70 195/66
f 41/71 147/72 269/73 154/74
f 143/75 146/76 268/77 175/78
f 23/79 145/80 267/81 170/82
f 28/83 49/84 266/85 166/86
f 30/87 142/88 264/89 164/90
f 39/91 141/92 263/93 156/94
f 28/95 140/96 262/97 184/98
f 39/91 137/99 260/100 194/101
f 40/102 136/103 259/48 155/44
f 20/104 134/105 258/106 17/40
f 32/107 132/108 256/109 187/12
f 36/64 272/63 254/59 7/58
f 22/110 127/111 253/112 16/113
f 42/114 125/115 251/116 197/20
f 46/117 124/118 250/119 149/120
f 23/79 123/121 249/122 15/123
f 22/110 122/124 248/125 171/126
f 18/127 121/128 247/129 268/77
f 19/130 119/131 246/132 263/93
f 25/133 118/134 245/135 213/136
f 87/137 55/138 278/46 289/139
f 133/140 55/141 244/142 258/106
f 129/43 279/42 243/37 255/36
f 95/143 56/144 280/38 287/145
f 126/146 56/147 242/148 253/112
f 21/149 117/150 241/151 249/122
f 190/31 282/30 239/22 159/21
f 29/152 57/153 238/154 165/155
f 35/156 238/154 237/157 8/158
f 189/28 284/27 233/14 160/13
f 43/159 105/160 232/55 152/54
f 38/161 103/162 230/163 157/164
f 34/165 101/166 229/167 237/157
f 41/71 100/168 228/169 196/170
f 42/114 99/171 227/172 153/61
f 44/173 97/174 226/175 199/176
f 37/177 96/178 225/179 192/16
f 47/180 93/181 223/182 148/183
f 38/161 92/184 222/185 193/24
f 37/177 91/186 221/187 158/188
f 31/189 89/190 220/191 9/25
f 24/192 85/193 217/51 14/50
f 26/194 81/195 213/136 13/196
f 27/197 80/198 212/199 167/200
f 45/201 78/202 211/203 150/204
f 30/87 77/205 210/206 186/207
f 32/107 76/208 209/209 162/68
f 43/159 73/210 207/211 198/212
f 44/173 72/213 206/33 151/32
f 33/214 70/215 205/216 188/217
f 83/218 69/219 204/220 290/221
f 88/222 68/223 203/224 220/191
f 161/26 203/224 70/215 33/214
f 70/215 203/224 68/223 67/225
f 220/191 203/224 161/26 9/25
f 214/226 204/220 71/227 82/228
f 71/227 204/220 69/219 67/225
f 290/221 204/220 214/226 168/229
f 215/230 205/216 69/219 83/218
f 69/219 205/216 70/215 67/225
f 188/217 205/216 215/230 169/29
f 74/231 206/33 72/213 66/232
f 148/233 207/211 75/234 47/235
f 75/234 207/211 73/210 66/232
f 198/236 207/237 148/183 2/238
f 152/54 208/239 73/210 43/159
f 73/210 208/239 74/231 66/232
f 200/69 209/209 78/202 45/201
f 78/202 209/209 76/208 65/240
f 162/68 209/209 200/69 5/65
f 165/155 210/206 79/241 29/152
f 79/241 210/206 77/205 65/240
f 186/207 210/206 165/155 11/242
f 164/90 211/203 77/205 30/87
f 77/205 211/203 78/202 65/240
f 150/204 211/203 164/90 6/243
f 82/244 212/199 80/198 64/245
f 25/133 213/136 81/195 64/245
f 168/246 214/247 81/195 26/194
f 81/195 214/247 82/244 64/245
f 169/29 215/230 85/248 24/249
f 85/248 215/230 83/218 63/250
f 13/196 216/251 86/252 26/194
f 86/252 216/251 84/253 63/254
f 84/255 217/51 85/193 63/256
f 163/257 218/258 89/259 31/260
f 89/259 218/258 87/261 62/262
f 167/200 219/263 90/264 27/197
f 90/265 219/4 88/222 62/266
f 88/222 220/191 89/190 62/266
f 202/6 221/187 93/181 47/180
f 93/181 221/187 91/186 61/267
f 158/188 221/187 202/6 1/5
f 234/268 222/185 94/269 108/270
f 94/269 222/185 92/184 61/267
f 193/24 222/185 234/268 159/21
f 157/164 223/182 92/184 38/161
f 92/184 223/182 93/181 61/267
f 148/183 223/182 157/164 2/238
f 151/32 224/271 97/174 44/173
f 97/174 224/271 95/272 60/273
f 236/274 225/179 98/275 111/276
f 98/275 225/179 96/178 60/277
f 192/16 225/179 236/274 160/13
f 158/188 226/278 96/178 37/177
f 96/178 226/278 97/279 60/277
f 199/8 226/278 158/188 1/5
f 191/280 227/172 101/166 34/165
f 101/166 227/172 99/171 59/281
f 153/61 227/172 191/280 7/58
f 149/282 228/169 102/283 46/284
f 102/283 228/169 100/168 59/281
f 196/170 228/169 149/282 4/285
f 154/74 229/167 100/168 41/71
f 100/168 229/167 101/166 59/281
f 237/157 229/167 154/74 8/158
f 198/212 230/286 105/160 43/159
f 105/287 230/163 103/162 58/288
f 157/164 230/163 198/236 2/238
f 240/289 231/290 106/291 115/292
f 106/291 231/290 104/293 58/294
f 104/295 232/55 105/160 58/296
f 108/270 233/14 284/27 109/297
f 188/217 107/298 109/297 33/214
f 190/31 107/298 188/217 169/29
f 159/21 234/268 107/298 190/31
f 107/298 234/268 108/270 109/297
f 111/299 235/300 283/301 112/302
f 9/25 110/303 112/304 31/189
f 189/28 110/303 9/25
f 160/13 236/274 110/303 189/28
f 110/303 236/274 111/276 112/304
f 185/10 113/305 57/153 29/152
f 36/64 113/305 185/10 10/9
f 34/165 237/157 238/154 57/153
f 165/155 238/154 35/156 11/242
f 115/306 239/22 282/30 116/307
f 14/50 114/308 116/309 24/192
f 114/308 240/289 115/292 116/309
f 172/310 281/34 117/150 21/149
f 182/35 281/34 172/310 16/113
f 208/239 241/151 117/150 74/231
f 183/57 241/151 208/239 152/54
f 249/122 241/151 183/57 15/123
f 253/112 242/148 182/35 16/113
f 287/145 280/38 243/37 235/300
f 224/271 242/148 56/147 95/272
f 182/35 242/148 224/271 151/32
f 283/301 279/42 181/41 163/257
f 235/300 243/37 279/42 283/301
f 258/106 244/142 181/41 17/40
f 289/139 278/46 179/45 12/311
f 218/258 244/142 55/141 87/261
f 181/41 244/142 218/258 163/257
f 180/312 277/49 118/134 25/133
f 179/45 277/49 180/312 12/311
f 261/313 245/135 118/134 138/314
f 178/315 245/135 261/313 156/94
f 213/136 245/135 178/315 13/196
f 174/316 276/52 119/317 19/318
f 177/53 276/52 174/316 166/86
f 216/251 246/132 119/131 84/253
f 178/315 246/132 216/251 13/196
f 263/93 246/132 178/315 156/94
f 175/78 275/319 120/320 266/85
f 177/53 120/320 114/308 14/50
f 266/85 120/320 177/53 166/86
f 176/321 274/56 121/322 18/323
f 183/57 274/56 176/321 15/123
f 231/290 247/129 121/128 104/293
f 275/319 247/129 231/290 240/289
f 268/77 247/129 275/319 175/78
f 201/324 248/125 124/118 46/117
f 124/118 248/125 122/124 54/325
f 171/326 248/327 201/18 3/17
f 21/149 249/122 123/121 54/325
f 170/82 250/119 123/121 23/79
f 123/121 250/119 124/118 54/325
f 149/282 250/328 170/329 4/285
f 171/126 251/330 127/111 22/110
f 127/331 251/116 125/115 53/332
f 197/20 251/116 171/326 3/17
f 255/36 252/39 128/333 130/334
f 128/333 252/39 126/335 53/336
f 126/146 253/112 127/111 53/337
f 130/338 254/59 272/63 131/339
f 17/40 129/43 131/340 20/104
f 129/43 255/36 130/334 131/340
f 173/62 256/109 134/341 20/342
f 134/341 256/109 132/108 52/343
f 187/12 256/109 173/62 10/9
f 155/44 257/47 135/344 40/102
f 135/344 257/47 133/345 52/346
f 133/140 258/106 134/105 52/347
f 138/314 259/48 136/103 51/348
f 150/349 260/100 139/350 45/351
f 139/350 260/100 137/99 51/348
f 194/352 260/353 150/204 6/243
f 156/94 261/313 137/99 39/91
f 137/99 261/313 138/314 51/348
f 186/207 262/97 142/88 30/87
f 142/88 262/97 140/96 50/354
f 184/98 262/97 186/207 11/242
f 19/130 263/93 141/92 50/355
f 194/101 264/356 141/92 39/91
f 141/357 264/89 142/88 50/354
f 164/90 264/89 194/352 6/243
f 8/158 265/358 144/359 35/156
f 144/359 265/358 143/360 49/361
f 184/98 144/359 49/361 28/95
f 35/156 144/359 184/98 11/242
f 196/170 267/362 147/72 41/71
f 147/72 267/362 145/363 48/364
f 170/329 267/362 196/170 4/285
f 18/127 268/77 146/76 48/365
f 265/358 269/73 146/366 143/360
f 146/366 269/73 147/72 48/364
f 154/74 269/73 265/358 8/158
f 145/80 176/321 18/323 48/367
f 15/123 176/321 145/80 23/79
f 143/75 175/78 266/85 49/84
f 140/368 174/316 19/318 50/369
f 166/86 174/316 140/368 28/83
f 136/103 270/370 139/350 51/348
f 139/350 270/370 200/371 45/351
f 195/372 270/370 136/103 40/102
f 132/108 271/67 135/373 52/343
f 135/344 271/374 195/372 40/102
f 162/68 271/67 132/108 32/107
f 131/339 272/63 173/62 20/342
f 125/115 273/60 128/375 53/332
f 128/375 273/60 254/59 130/338
f 153/61 273/60 125/115 42/114
f 122/124 172/310 21/149 54/325
f 16/113 172/310 122/124 22/110
f 121/322 274/56 232/55 104/295
f 120/320 275/319 240/289 114/308
f 119/317 276/52 217/51 84/255
f 118/134 277/49 259/48 138/314
f 257/47 278/46 55/138 133/345
f 252/39 280/38 56/144 126/335
f 117/150 281/34 206/33 74/231
f 116/307 282/30 169/29 24/249
f 113/305 191/280 34/165 57/153
f 7/58 191/280 113/305 36/64
f 112/302 283/301 163/257 31/260
f 109/297 284/27 161/26 33/214
f 103/162 285/23 106/376 58/288
f 106/376 285/23 239/22 115/306
f 193/24 285/23 103/162 38/161
f 99/171 286/19 102/283 59/281
f 102/283 286/19 201/18 46/284
f 197/20 286/19 99/171 42/114
f 95/143 287/145 98/377 60/378
f 98/377 287/145 235/300 111/299
f 91/186 288/15 94/269 61/267
f 94/269 288/15 233/14 108/270
f 192/16 288/15 91/186 37/177
f 87/137 289/139 90/264 62/379
f 90/264 289/139 12/311 27/197
f 83/218 290/221 86/380 63/250
f 86/252 290/381 168/246 26/194
f 80/198 180/312 25/133 64/245
f 12/311 180/312 80/198 27/197
f 76/208 291/11 79/241 65/240
f 79/241 291/11 185/10 29/152
f 187/12 291/11 76/208 32/107
f 72/213 292/382 75/234 66/232
f 75/234 292/382 202/383 47/235
f 199/176 292/382 72/213 44/173
f 68/223 293/3 71/227 67/225
f 71/227 293/3 212/2 82/228
f 219/4 293/3 68/223 88/222
